Découvrez le Package Simputation de R – Anassé Yahanan
…
Cas pratique

Nous allons imputer les valeurs de la variable Solar.R utilisant les variables Wind, Temp, et Month, et enchaîner une autre étape d’imputation dans pour imputer la variable Ozone avec les mêmes variables.

airquality_lm_impute <- airquality %>% 
  nabular() %>% 
  add_label_shadow() %>% 
  as.data.frame() %>% 
  impute_lm(Solar.R ~ Wind + Temp + Month) %>% 
  impute_lm(Ozone ~ Wind + Temp + Month) %>% 
  as_tibble() 

airquality_lm_impute

# A tibble: 153 × 13
   Ozone Solar.R  Wind  Temp Month   Day Ozone_NA Solar.R_NA Wind_NA Temp_NA
   <dbl>   <dbl> <dbl> <int> <int> <int> <fct>    <fct>      <fct>   <fct>  
 1 41       190    7.4    67     5     1 !NA      !NA        !NA     !NA    
 2 36       118    8      72     5     2 !NA      !NA        !NA     !NA    
 3 12       149   12.6    74     5     3 !NA      !NA        !NA     !NA    
 4 18       313   11.5    62     5     4 !NA      !NA        !NA     !NA    
 5 -9.04    138.  14.3    56     5     5 NA       NA         !NA     !NA    
 6 28       178.  14.9    66     5     6 !NA      NA         !NA     !NA    
 7 23       299    8.6    65     5     7 !NA      !NA        !NA     !NA    
 8 19        99   13.8    59     5     8 !NA      !NA        !NA     !NA    
 9  8        19   20.1    61     5     9 !NA      !NA        !NA     !NA    
10 35.2     194    8.6    69     5    10 NA       !NA        !NA     !NA    
# ℹ 143 more rows
# ℹ 3 more variables: Month_NA <fct>, Day_NA <fct>, any_missing <chr>
…
